[
    {
        "key": "group_5579f28acfa5c",
        "title": "404 Page Options",
        "fields": [
            {
                "key": "field_5579f2aa86c35",
                "label": "404 Page Title",
                "name": "404_page_title",
                "type": "text",
                "instructions": "",
                "required": 0,
                "conditional_logic": 0,
                "wrapper": {
                    "width": "",
                    "class": "",
                    "id": ""
                },
                "default_value": "Error! Error!",
                "placeholder": "",
                "prepend": "",
                "append": "",
                "maxlength": "",
                "readonly": 0,
                "disabled": 0
            },
            {
                "key": "field_5579f2b786c36",
                "label": "404 Page Content",
                "name": "404_page_content",
                "type": "wysiwyg",
                "instructions": "",
                "required": 0,
                "conditional_logic": 0,
                "wrapper": {
                    "width": "",
                    "class": "",
                    "id": ""
                },
                "default_value": "It seems the page you are looking for has been lost!",
                "tabs": "all",
                "toolbar": "basic",
                "media_upload": 0
            },
            {
                "key": "field_5579f2d886c37",
                "label": "Display Search Form",
                "name": "404_display_search_form",
                "type": "true_false",
                "instructions": "",
                "required": 0,
                "conditional_logic": 0,
                "wrapper": {
                    "width": "",
                    "class": "",
                    "id": ""
                },
                "message": "",
                "default_value": 1
            },
            {
                "key": "field_5579f2ef86c38",
                "label": "Display Back to Home Button",
                "name": "404_display_back_to_home_button",
                "type": "true_false",
                "instructions": "",
                "required": 0,
                "conditional_logic": 0,
                "wrapper": {
                    "width": 50,
                    "class": "",
                    "id": ""
                },
                "message": "",
                "default_value": 1
            },
            {
                "key": "field_5579f3f001b19",
                "label": "Back to Home Button Text",
                "name": "404_back_to_home_button_text",
                "type": "text",
                "instructions": "",
                "required": 0,
                "conditional_logic": 0,
                "wrapper": {
                    "width": 50,
                    "class": "",
                    "id": ""
                },
                "default_value": "Return Home",
                "placeholder": "",
                "prepend": "",
                "append": "",
                "maxlength": "",
                "readonly": 0,
                "disabled": 0
            }
        ],
        "location": [
            [
                {
                    "param": "options_page",
                    "operator": "==",
                    "value": "acf-options-404-page"
                }
            ]
        ],
        "menu_order": 0,
        "position": "normal",
        "style": "default",
        "label_placement": "top",
        "instruction_placement": "label",
        "hide_on_screen": ""
    }
]